0 0 0 0 0 0 0 0 0 0 0 0 0 0 0 0 0 0 0 0 0 0 0 0 0 0 0 0 0 0 0 0 0 0 0 0 0 0  0 0 0 0 00 0 0 0 0 0 0
00010000100000000000000000000000000000000000000000
00000000000000000000000011000000000000000000000000
00000100100000000000000011000000000000000100000000
00000001000000000000000000000000000000001010000000
00000000000000000000000000011000000000010001000000
00000000000000000000000000000000000001000000000000
000000000000000000000000100000000010000000100000
00000000000000000000000000000000000100000000010000
00000000000000000000000010000010001000000000010000
00000000000000000001000010000000010000000000000000
00000000000000000000000000000001100001101100100000
00000000000000010100000000000001000000000000000000
00100000000000000000000000000000100000000000000000
00000000000000000010000000000001000000000000000000
00000000000000001000000000000000100000000000000000
00000000000000000110000100000010000000000000000000
00000000000000000100000010001000001000000000000000
00000001000001011000001110010000001000000000000000
00000000000000000000000000100000000010000000000000
00000000000010000000000000100000000001000000000000
00000000000011010000000001000000000000000000000000
00000000011100000100000010000000000000100000000000
00000000100000000010000000000000000000011000000000
00000000000000000001000100000000000000000100000000
00000100000000000000101000000000010000000000000000
00000000000000000000101000000000010000000000000000
00000010000001000000000000101000000000000000000000
00000000000010000000000000010000000000000000000000
00000000010000000000000000000000001100000000000000
00000000001100000000110000000000000000000011000000
00000000000000000000000000000000000000000000000000
00000000000000000000000000000000000000000010000000
00000000000111000000000000000000000000000100000000
00000000000000000000000000000000000000001000000000
00000000000000000000000000000000000000000000000000
00000000000000000000001000000000000000010000000000
00000100000000000000000100000000000000000000000000
00000000000000000000000010000000000000100000000000
00000000000001111110111001000000000000000000000000
00000100000100000000000000000000000111000000000000
00000010000000000000000000010000000000000000000000
00000001011000000000000000000000001000000000000000
00000101010101000000000000000000000000000000000000
00000010101010100100000000000000000000000000000000
00000000000000000000000000000000110000000000000000
00000000100000000000000000010000000000000000000000
00000111000000000000000000001000000000000000000000
00000000000000000000000000000110000000000000000000
00000000000000000000000000000000000000000000000000
